Lab 10 Homework
…
deserts

## # A tibble: 34,786 x 13
##    record_id month   day  year plot_id species_id sex   hindfoot_length weight
##        <dbl> <dbl> <dbl> <dbl>   <dbl> <chr>      <chr>           <dbl>  <dbl>
##  1         1     7    16  1977       2 NL         M                  32     NA
##  2         2     7    16  1977       3 NL         M                  33     NA
##  3         3     7    16  1977       2 DM         F                  37     NA
##  4         4     7    16  1977       7 DM         M                  36     NA
##  5         5     7    16  1977       3 DM         M                  35     NA
##  6         6     7    16  1977       1 PF         M                  14     NA
##  7         7     7    16  1977       2 PE         F                  NA     NA
##  8         8     7    16  1977       1 DM         M                  37     NA
##  9         9     7    16  1977       1 DM         F                  34     NA
## 10        10     7    16  1977       6 PF         F                  20     NA
## #  with 34,776 more rows, and 4 more variables: genus <chr>, species <chr>,
## #   taxa <chr>, plot_type <chr>
…
#geom_jitter didn't seem to help with the overplotting, but reducing the geom_point size did. How could I mkae this look even better? 

Which two species have, on average, the highest weight? Once you have identified them, make a new column that is a ratio of weight to hindfoot_length. Make a plot that shows the range of this new ratio and fill by sex.

deserts %>% 
  group_by(species) %>% 
  summarize(avg_weight = mean(weight, na.rm = T)) %>% 
  arrange(desc(avg_weight))

## # A tibble: 40 x 2
##    species      avg_weight
##    <chr>             <dbl>
##  1 albigula          159. 
##  2 spectabilis       120. 
##  3 spilosoma          93.5
##  4 hispidus           65.6
##  5 fulviventer        58.9
##  6 ochrognathus       55.4
##  7 ordii              48.9
##  8 merriami           43.2
##  9 baileyi            31.7
## 10 leucogaster        31.6
## #  with 30 more rows

#albigula and spectabilis have the highest weight on average

deserts <- deserts %>% 
  filter(weight != "NA") %>% 
  filter(hindfoot_length != "NA") %>% 
  mutate(weight_hindfoot_ratio = (weight / hindfoot_length))
deserts

## # A tibble: 30,738 x 14
##    record_id month   day  year plot_id species_id sex   hindfoot_length weight
##        <dbl> <dbl> <dbl> <dbl>   <dbl> <chr>      <chr>           <dbl>  <dbl>
##  1        63     8    19  1977       3 DM         M                  35     40
##  2        64     8    19  1977       7 DM         M                  37     48
##  3        65     8    19  1977       4 DM         F                  34     29
##  4        66     8    19  1977       4 DM         F                  35     46
##  5        67     8    19  1977       7 DM         M                  35     36
##  6        68     8    19  1977       8 DO         F                  32     52
##  7        69     8    19  1977       2 PF         M                  15      8
##  8        70     8    19  1977       3 OX         F                  21     22
##  9        71     8    19  1977       7 DM         F                  36     35
## 10        74     8    19  1977       8 PF         M                  12      7
## #  with 30,728 more rows, and 5 more variables: genus <chr>, species <chr>,
## #   taxa <chr>, plot_type <chr>, weight_hindfoot_ratio <dbl>
…
Make one plot of your choice! Make sure to include at least two of the aesthetics options you have learned.

deserts

## # A tibble: 30,738 x 14
##    record_id month   day  year plot_id species_id sex   hindfoot_length weight
##        <dbl> <dbl> <dbl> <dbl>   <dbl> <chr>      <chr>           <dbl>  <dbl>
##  1        63     8    19  1977       3 DM         M                  35     40
##  2        64     8    19  1977       7 DM         M                  37     48
##  3        65     8    19  1977       4 DM         F                  34     29
##  4        66     8    19  1977       4 DM         F                  35     46
##  5        67     8    19  1977       7 DM         M                  35     36
##  6        68     8    19  1977       8 DO         F                  32     52
##  7        69     8    19  1977       2 PF         M                  15      8
##  8        70     8    19  1977       3 OX         F                  21     22
##  9        71     8    19  1977       7 DM         F                  36     35
## 10        74     8    19  1977       8 PF         M                  12      7
## #  with 30,728 more rows, and 5 more variables: genus <chr>, species <chr>,
## #   taxa <chr>, plot_type <chr>, weight_hindfoot_ratio <dbl>
…
