…
```r
gapminder_clean <- clean_names(gapminder)
gapminder_clean
```

```
## # A tibble: 1,704 x 6
##    country     continent  year life_exp      pop gdp_percap
##    <fct>       <fct>     <int>    <dbl>    <int>      <dbl>
##  1 Afghanistan Asia       1952     28.8  8425333       779.
##  2 Afghanistan Asia       1957     30.3  9240934       821.
##  3 Afghanistan Asia       1962     32.0 10267083       853.
##  4 Afghanistan Asia       1967     34.0 11537966       836.
##  5 Afghanistan Asia       1972     36.1 13079460       740.
##  6 Afghanistan Asia       1977     38.4 14880372       786.
##  7 Afghanistan Asia       1982     39.9 12881816       978.
##  8 Afghanistan Asia       1987     40.8 13867957       852.
##  9 Afghanistan Asia       1992     41.7 16317921       649.
## 10 Afghanistan Asia       1997     41.8 22227415       635.
## # ... with 1,694 more rows
```
…
```r
gapminder_growth <- gapminder_clean %>% 
  group_by(country) %>% 
  select(country, pop, year) %>% 
  filter(year == 1952 | year == 2007) %>% 
  mutate(pop_growth = pop-lag(pop, default=first(pop))) %>% 
  filter(year == 2007) %>% 
  arrange(desc(pop_growth))

gapminder_growth
```

```
## # A tibble: 142 x 4
## # Groups:   country [142]
##    country              pop year  pop_growth
##    <fct>              <int> <fct>      <int>
##  1 China         1318683096 2007   762419569
##  2 India         1110396331 2007   738396331
##  3 United States  301139947 2007   143586947
##  4 Indonesia      223547000 2007   141495000
##  5 Brazil         190010647 2007   133408087
##  6 Pakistan       169270617 2007   127924057
##  7 Bangladesh     150448339 2007   103561480
##  8 Nigeria        135031164 2007   101912068
##  9 Mexico         108700891 2007    78556574
## 10 Philippines     91077287 2007    68638596
## # ... with 132 more rows
```
…
