…
```r
naniar::miss_var_summary(population)
```

```
## # A tibble: 302 x 3
##    variable n_miss pct_miss
##    <chr>     <int>    <dbl>
##  1 country       0        0
##  2 1800          0        0
##  3 1801          0        0
##  4 1802          0        0
##  5 1803          0        0
##  6 1804          0        0
##  7 1805          0        0
##  8 1806          0        0
##  9 1807          0        0
## 10 1808          0        0
## # … with 292 more rows
```
…
```r
naniar::miss_var_summary(income)
```

```
## # A tibble: 242 x 3
##    variable n_miss pct_miss
##    <chr>     <int>    <dbl>
##  1 country       0        0
##  2 1800          0        0
##  3 1801          0        0
##  4 1802          0        0
##  5 1803          0        0
##  6 1804          0        0
##  7 1805          0        0
##  8 1806          0        0
##  9 1807          0        0
## 10 1808          0        0
## # … with 232 more rows
```
…
```r
naniar::miss_var_summary(life_expectancy)
```

```
## # A tibble: 302 x 3
##    variable n_miss pct_miss
##    <chr>     <int>    <dbl>
##  1 1800          3     1.60
##  2 1801          3     1.60
##  3 1802          3     1.60
##  4 1803          3     1.60
##  5 1804          3     1.60
##  6 1805          3     1.60
##  7 1806          3     1.60
##  8 1807          3     1.60
##  9 1808          3     1.60
## 10 1809          3     1.60
## # … with 292 more rows
```

1. (3 points) Once you have an idea of the structure of the data, please make each data set tidy and store them as new objects. You will need both the original and tidy data!

```r
population_tidy <- population %>% 
  pivot_longer(-country,
               names_to = "year",
               values_to = "pop",
               values_drop_na = TRUE)
population_tidy
```

```
## # A tibble: 58,695 x 3
##    country     year      pop
##    <chr>       <chr>   <dbl>
##  1 Afghanistan 1800  3280000
##  2 Afghanistan 1801  3280000
##  3 Afghanistan 1802  3280000
##  4 Afghanistan 1803  3280000
##  5 Afghanistan 1804  3280000
##  6 Afghanistan 1805  3280000
##  7 Afghanistan 1806  3280000
##  8 Afghanistan 1807  3280000
##  9 Afghanistan 1808  3280000
## 10 Afghanistan 1809  3280000
## # … with 58,685 more rows
```


```r
income_tidy <- income %>% 
   pivot_longer(-country,
               names_to = "year",
               values_to = "GDP_percapita",
               values_drop_na = TRUE)
income_tidy
```

```
## # A tibble: 46,513 x 3
##    country     year  GDP_percapita
##    <chr>       <chr>         <dbl>
##  1 Afghanistan 1800            603
##  2 Afghanistan 1801            603
##  3 Afghanistan 1802            603
##  4 Afghanistan 1803            603
##  5 Afghanistan 1804            603
##  6 Afghanistan 1805            603
##  7 Afghanistan 1806            603
##  8 Afghanistan 1807            603
##  9 Afghanistan 1808            603
## 10 Afghanistan 1809            603
## # … with 46,503 more rows
```


```r
life_expectancy_tidy <- life_expectancy %>% 
  pivot_longer(-country,
               names_to = "year",
               values_to = "life_exp",
               values_drop_na = TRUE)
life_expectancy_tidy
```

```
## # A tibble: 55,528 x 3
##    country     year  life_exp
##    <chr>       <chr>    <dbl>
##  1 Afghanistan 1800      28.2
##  2 Afghanistan 1801      28.2
##  3 Afghanistan 1802      28.2
##  4 Afghanistan 1803      28.2
##  5 Afghanistan 1804      28.2
##  6 Afghanistan 1805      28.2
##  7 Afghanistan 1806      28.1
##  8 Afghanistan 1807      28.1
##  9 Afghanistan 1808      28.1
## 10 Afghanistan 1809      28.1
## # … with 55,518 more rows
```
…
```
## # A tibble: 1 x 1
##       n
##   <int>
## 1   195
```

```r
population_tidy %>% 
  count(country)
```

```
## # A tibble: 195 x 2
##    country                 n
##  * <chr>               <int>
##  1 Afghanistan           301
##  2 Albania               301
##  3 Algeria               301
##  4 Andorra               301
##  5 Angola                301
##  6 Antigua and Barbuda   301
##  7 Argentina             301
##  8 Armenia               301
##  9 Australia             301
## 10 Austria               301
## # … with 185 more rows
```
…
```
## # A tibble: 1 x 1
##       n
##   <int>
## 1   193
```

```r
income_tidy %>% 
  count(country)
```

```
## # A tibble: 193 x 2
##    country                 n
##  * <chr>               <int>
##  1 Afghanistan           241
##  2 Albania               241
##  3 Algeria               241
##  4 Andorra               241
##  5 Angola                241
##  6 Antigua and Barbuda   241
##  7 Argentina             241
##  8 Armenia               241
##  9 Australia             241
## 10 Austria               241
## # … with 183 more rows
```
…
```
## # A tibble: 1 x 1
##       n
##   <int>
## 1   187
```

```r
life_expectancy_tidy %>% 
  count(country)
```

```
## # A tibble: 187 x 2
##    country                 n
##  * <chr>               <int>
##  1 Afghanistan           301
##  2 Albania               301
##  3 Algeria               301
##  4 Andorra                48
##  5 Angola                301
##  6 Antigua and Barbuda   301
##  7 Argentina             301
##  8 Armenia               301
##  9 Australia             301
## 10 Austria               301
## # … with 177 more rows
```
…
3. (2 points) Let's limit the data to the past 100 years (1920-2020). For these years, which country has the highest life expectancy? How about the lowest life expectancy?  

Highest

```r
life_expectancy_tidy %>% 
  filter(year >= 1920, year <= 2020) %>% 
  arrange(desc(life_exp))
```

```
## # A tibble: 18,728 x 3
##    country     year  life_exp
##    <chr>       <chr>    <dbl>
##  1 Singapore   2020      85.3
##  2 Singapore   2019      85.1
##  3 Singapore   2018      85  
##  4 Singapore   2017      84.8
##  5 Japan       2020      84.7
##  6 Singapore   2016      84.7
##  7 Japan       2019      84.5
##  8 Japan       2018      84.4
##  9 Singapore   2015      84.4
## 10 Switzerland 2020      84.4
## # … with 18,718 more rows
```
Lowest

```r
life_expectancy_tidy %>% 
  filter(year >= 1920, year <= 2020) %>% 
  arrange(life_exp)
```

```
## # A tibble: 18,728 x 3
##    country         year  life_exp
##    <chr>           <chr>    <dbl>
##  1 Kazakhstan      1933      4.07
##  2 Kazakhstan      1932      8.15
##  3 Ukraine         1933      8.94
##  4 Rwanda          1994      9.64
##  5 Pakistan        1947     11.1 
##  6 Kyrgyz Republic 1921     11.9 
##  7 Lithuania       1941     12   
##  8 Belarus         1943     13.9 
##  9 Kyrgyz Republic 1922     13.9 
## 10 Turkmenistan    1933     14.2 
## # … with 18,718 more rows
```
…
```r
income_100 <- income_tidy %>% 
  filter(between(year, 1920, 2020))
```


```r
gapminder_join <- inner_join(life_expectancy_100, population_100, by= c("country", "year"))
gapminder_join <- inner_join(gapminder_join, income_100, by= c("country", "year"))
gapminder_join
```

```
## # A tibble: 18,728 x 5
##    country     year  life_exp      pop GDP_percapita
##    <chr>       <chr>    <dbl>    <dbl>         <dbl>
##  1 Afghanistan 1920      30.6 10600000          1490
##  2 Afghanistan 1921      30.7 10500000          1520
##  3 Afghanistan 1922      30.8 10300000          1550
##  4 Afghanistan 1923      30.8  9710000          1570
##  5 Afghanistan 1924      30.9  9200000          1600
##  6 Afghanistan 1925      31    8720000          1630
##  7 Afghanistan 1926      31    8260000          1650
##  8 Afghanistan 1927      31.1  7830000          1680
##  9 Afghanistan 1928      31.1  7420000          1710
## 10 Afghanistan 1929      31.2  7100000          1740
## # … with 18,718 more rows
```
…
