…
2. Notice that we have some neutral superheros! Who are they?

```r
superhero_info %>% 
  select(alignment, name ) %>% 
  filter(alignment == "neutral")
```

```
## # A tibble: 24 x 2
##    alignment name        
##    <chr>     <chr>       
##  1 neutral   Bizarro     
##  2 neutral   Black Flash 
##  3 neutral   Captain Cold
##  4 neutral   Copycat     
##  5 neutral   Deadpool    
##  6 neutral   Deathstroke 
##  7 neutral   Etrigan     
##  8 neutral   Galactus    
##  9 neutral   Gladiator   
## 10 neutral   Indigo      
## # … with 14 more rows
```
…
## `superhero_info`
3. Let's say we are only interested in the variables name, alignment, and "race". How would you isolate these variables from `superhero_info`?

```r
superhero_info %>%
  select(name, alignment, race)
```

```
## # A tibble: 734 x 3
##    name          alignment race             
##    <chr>         <chr>     <chr>            
##  1 A-Bomb        good      Human            
##  2 Abe Sapien    good      Icthyo Sapien    
##  3 Abin Sur      good      Ungaran          
##  4 Abomination   bad       Human / Radiation
##  5 Abraxas       bad       Cosmic Entity    
##  6 Absorbing Man bad       Human            
##  7 Adam Monroe   good      <NA>             
##  8 Adam Strange  good      Human            
##  9 Agent 13      good      <NA>             
## 10 Agent Bob     good      Human            
## # … with 724 more rows
```

## Not Human
4. List all of the superheros that are not human.

```r
superhero_info %>% 
  select(name, alignment, race) %>% 
  filter(race != "Human")
```

```
## # A tibble: 222 x 3
##    name         alignment race             
##    <chr>        <chr>     <chr>            
##  1 Abe Sapien   good      Icthyo Sapien    
##  2 Abin Sur     good      Ungaran          
##  3 Abomination  bad       Human / Radiation
##  4 Abraxas      bad       Cosmic Entity    
##  5 Ajax         bad       Cyborg           
##  6 Alien        bad       Xenomorph XX121  
##  7 Amazo        bad       Android          
##  8 Angel        good      Vampire          
##  9 Angel Dust   good      Mutant           
## 10 Anti-Monitor bad       God / Eternal    
## # … with 212 more rows
```
…
## Good and Evil
5. Let's make two different data frames, one focused on the "good guys" and another focused on the "bad guys".

```r
good_guys <- filter(superhero_info, alignment == "good")
good_guys
```

```
## # A tibble: 496 x 10
##    name  gender eye_color race  hair_color height publisher skin_color alignment
##    <chr> <chr>  <chr>     <chr> <chr>       <dbl> <chr>     <chr>      <chr>    
##  1 A-Bo… Male   yellow    Human No Hair       203 Marvel C… <NA>       good     
##  2 Abe … Male   blue      Icth… No Hair       191 Dark Hor… blue       good     
##  3 Abin… Male   blue      Unga… No Hair       185 DC Comics red        good     
##  4 Adam… Male   blue      <NA>  Blond          NA NBC - He… <NA>       good     
##  5 Adam… Male   blue      Human Blond         185 DC Comics <NA>       good     
##  6 Agen… Female blue      <NA>  Blond         173 Marvel C… <NA>       good     
##  7 Agen… Male   brown     Human Brown         178 Marvel C… <NA>       good     
##  8 Agen… Male   <NA>      <NA>  <NA>          191 Marvel C… <NA>       good     
##  9 Alan… Male   blue      <NA>  Blond         180 DC Comics <NA>       good     
## 10 Alex… Male   <NA>      <NA>  <NA>           NA NBC - He… <NA>       good     
## # … with 486 more rows, and 1 more variable: weight <dbl>
```

```r
bad_guys <- filter(superhero_info, alignment == "bad")
bad_guys
```

```
## # A tibble: 207 x 10
##    name  gender eye_color race  hair_color height publisher skin_color alignment
##    <chr> <chr>  <chr>     <chr> <chr>       <dbl> <chr>     <chr>      <chr>    
##  1 Abom… Male   green     Huma… No Hair       203 Marvel C… <NA>       bad      
##  2 Abra… Male   blue      Cosm… Black          NA Marvel C… <NA>       bad      
##  3 Abso… Male   blue      Human No Hair       193 Marvel C… <NA>       bad      
##  4 Air-… Male   blue      <NA>  White         188 Marvel C… <NA>       bad      
##  5 Ajax  Male   brown     Cybo… Black         193 Marvel C… <NA>       bad      
##  6 Alex… Male   <NA>      Human <NA>           NA Wildstorm <NA>       bad      
##  7 Alien Male   <NA>      Xeno… No Hair       244 Dark Hor… black      bad      
##  8 Amazo Male   red       Andr… <NA>          257 DC Comics <NA>       bad      
##  9 Ammo  Male   brown     Human Black         188 Marvel C… <NA>       bad      
## 10 Ange… Female <NA>      <NA>  <NA>           NA Image Co… <NA>       bad      
## # … with 197 more rows, and 1 more variable: weight <dbl>
```
…
8. Among the bad guys, who are the male humans over 200 inches in height?

```r
filter(bad_guys, gender == "Male", height >= 200)
```

```
## # A tibble: 22 x 10
##    name  gender eye_color race  hair_color height publisher skin_color alignment
##    <chr> <chr>  <chr>     <chr> <chr>       <dbl> <chr>     <chr>      <chr>    
##  1 Abom… Male   green     Huma… No Hair       203 Marvel C… <NA>       bad      
##  2 Alien Male   <NA>      Xeno… No Hair       244 Dark Hor… black      bad      
##  3 Amazo Male   red       Andr… <NA>          257 DC Comics <NA>       bad      
##  4 Apoc… Male   red       Muta… Black         213 Marvel C… grey       bad      
##  5 Bane  Male   <NA>      Human <NA>          203 DC Comics <NA>       bad      
##  6 Dark… Male   red       New … No Hair       267 DC Comics grey       bad      
##  7 Doct… Male   brown     Human Brown         201 Marvel C… <NA>       bad      
##  8 Doct… Male   brown     <NA>  Brown         201 Marvel C… <NA>       bad      
##  9 Doom… Male   red       Alien White         244 DC Comics <NA>       bad      
## 10 Kill… Male   red       Meta… No Hair       244 DC Comics green      bad      
## # … with 12 more rows, and 1 more variable: weight <dbl>
```

9. OK, so are there more good guys or bad guys that are bald (personal interest)?

```r
filter(good_guys, hair_color == "No Hair")
```

```
## # A tibble: 37 x 10
##    name  gender eye_color race  hair_color height publisher skin_color alignment
##    <chr> <chr>  <chr>     <chr> <chr>       <dbl> <chr>     <chr>      <chr>    
##  1 A-Bo… Male   yellow    Human No Hair       203 Marvel C… <NA>       good     
##  2 Abe … Male   blue      Icth… No Hair       191 Dark Hor… blue       good     
##  3 Abin… Male   blue      Unga… No Hair       185 DC Comics red        good     
##  4 Beta… Male   <NA>      <NA>  No Hair       201 Marvel C… <NA>       good     
##  5 Bish… Male   brown     Muta… No Hair       198 Marvel C… <NA>       good     
##  6 Blac… Male   brown     <NA>  No Hair       185 DC Comics <NA>       good     
##  7 Blaq… <NA>   black     <NA>  No Hair        NA Marvel C… <NA>       good     
##  8 Bloo… Male   black     Muta… No Hair        NA Marvel C… <NA>       good     
##  9 Crim… Male   brown     <NA>  No Hair       180 Marvel C… <NA>       good     
## 10 Dona… Male   green     Muta… No Hair        NA IDW Publ… green      good     
## # … with 27 more rows, and 1 more variable: weight <dbl>
```

```r
filter(bad_guys, hair_color == "No Hair")
```

```
## # A tibble: 35 x 10
##    name  gender eye_color race  hair_color height publisher skin_color alignment
##    <chr> <chr>  <chr>     <chr> <chr>       <dbl> <chr>     <chr>      <chr>    
##  1 Abom… Male   green     Huma… No Hair     203   Marvel C… <NA>       bad      
##  2 Abso… Male   blue      Human No Hair     193   Marvel C… <NA>       bad      
##  3 Alien Male   <NA>      Xeno… No Hair     244   Dark Hor… black      bad      
##  4 Anni… Male   green     <NA>  No Hair     180   Marvel C… <NA>       bad      
##  5 Anti… Male   yellow    God … No Hair      61   DC Comics <NA>       bad      
##  6 Blac… Male   black     Human No Hair     188   DC Comics <NA>       bad      
##  7 Bloo… Male   white     <NA>  No Hair      30.5 Marvel C… <NA>       bad      
##  8 Brai… Male   green     Andr… No Hair     198   DC Comics green      bad      
##  9 Dark… Male   red       New … No Hair     267   DC Comics grey       bad      
## 10 Dart… Male   yellow    Cybo… No Hair     198   George L… <NA>       bad      
## # … with 25 more rows, and 1 more variable: weight <dbl>
```
…
## Height to Weight Ratio
13. It's easy to be strong when you are heavy and tall, but who is heavy and short? Which superheros have the highest height to weight ratio?

```r
superhero_info %>% 
  mutate(weight_to_height_ratio = weight/height) %>%
  select(name, height, weight, weight_to_height_ratio) %>% 
  arrange(desc(weight_to_height_ratio))
```

```
## # A tibble: 734 x 4
##    name        height weight weight_to_height_ratio
##    <chr>        <dbl>  <dbl>                  <dbl>
##  1 Giganta       62.5    630                  10.1 
##  2 Utgard-Loki   15.2     58                   3.82
##  3 Darkseid     267      817                   3.06
##  4 Juggernaut   287      855                   2.98
##  5 Red Hulk     213      630                   2.96
##  6 Sasquatch    305      900                   2.95
##  7 Hulk         244      630                   2.58
##  8 Bloodaxe     218      495                   2.27
##  9 Thanos       201      443                   2.20
## 10 A-Bomb       203      441                   2.17
## # … with 724 more rows
```
Giganta has the highest weight to height ratio by far, and the second and third height are Utgard-Loki and Darkseid respectively. 

## `superhero_powers`
Have a quick look at the `superhero_powers` data frame.  

```r
superhero_powers
```

```
## # A tibble: 667 x 168
##    hero_names agility accelerated_hea… lantern_power_r… dimensional_awa…
##    <chr>      <lgl>   <lgl>            <lgl>            <lgl>           
##  1 3-D Man    TRUE    FALSE            FALSE            FALSE           
##  2 A-Bomb     FALSE   TRUE             FALSE            FALSE           
##  3 Abe Sapien TRUE    TRUE             FALSE            FALSE           
##  4 Abin Sur   FALSE   FALSE            TRUE             FALSE           
##  5 Abominati… FALSE   TRUE             FALSE            FALSE           
##  6 Abraxas    FALSE   FALSE            FALSE            TRUE            
##  7 Absorbing… FALSE   FALSE            FALSE            FALSE           
##  8 Adam Monr… FALSE   TRUE             FALSE            FALSE           
##  9 Adam Stra… FALSE   FALSE            FALSE            FALSE           
## 10 Agent Bob  FALSE   FALSE            FALSE            FALSE           
## # … with 657 more rows, and 163 more variables: cold_resistance <lgl>,
## #   durability <lgl>, stealth <lgl>, energy_absorption <lgl>, flight <lgl>,
## #   danger_sense <lgl>, underwater_breathing <lgl>, marksmanship <lgl>,
## #   weapons_master <lgl>, power_augmentation <lgl>, animal_attributes <lgl>,
## #   longevity <lgl>, intelligence <lgl>, super_strength <lgl>,
## #   cryokinesis <lgl>, telepathy <lgl>, energy_armor <lgl>,
## #   energy_blasts <lgl>, duplication <lgl>, size_changing <lgl>,
## #   density_control <lgl>, stamina <lgl>, astral_travel <lgl>,
## #   audio_control <lgl>, dexterity <lgl>, omnitrix <lgl>, super_speed <lgl>,
…
14. How many superheros have a combination of accelerated healing, durability, and super strength?

```r
superhero_powers %>% 
  filter(accelerated_healing == TRUE, durability == TRUE, super_strength == TRUE)
```

```
## # A tibble: 97 x 168
##    hero_names agility accelerated_hea… lantern_power_r… dimensional_awa…
##    <chr>      <lgl>   <lgl>            <lgl>            <lgl>           
##  1 A-Bomb     FALSE   TRUE             FALSE            FALSE           
##  2 Abe Sapien TRUE    TRUE             FALSE            FALSE           
##  3 Angel      TRUE    TRUE             FALSE            FALSE           
##  4 Anti-Moni… FALSE   TRUE             FALSE            TRUE            
##  5 Anti-Venom FALSE   TRUE             FALSE            FALSE           
##  6 Aquaman    TRUE    TRUE             FALSE            FALSE           
##  7 Arachne    TRUE    TRUE             FALSE            FALSE           
##  8 Archangel  TRUE    TRUE             FALSE            FALSE           
##  9 Ardina     TRUE    TRUE             FALSE            FALSE           
## 10 Ares       TRUE    TRUE             FALSE            FALSE           
## # … with 87 more rows, and 163 more variables: cold_resistance <lgl>,
## #   durability <lgl>, stealth <lgl>, energy_absorption <lgl>, flight <lgl>,
## #   danger_sense <lgl>, underwater_breathing <lgl>, marksmanship <lgl>,
## #   weapons_master <lgl>, power_augmentation <lgl>, animal_attributes <lgl>,
## #   longevity <lgl>, intelligence <lgl>, super_strength <lgl>,
## #   cryokinesis <lgl>, telepathy <lgl>, energy_armor <lgl>,
## #   energy_blasts <lgl>, duplication <lgl>, size_changing <lgl>,
## #   density_control <lgl>, stamina <lgl>, astral_travel <lgl>,
## #   audio_control <lgl>, dexterity <lgl>, omnitrix <lgl>, super_speed <lgl>,
…
## `kinesis`
15. We are only interested in the superheros that do some kind of "kinesis". How would we isolate them from the `superhero_powers` data?

```r
superhero_powers %>% 
  select(hero_names, ends_with("kinesis")) %>% 
  filter_all(any_vars(.==TRUE))
```

```
## # A tibble: 112 x 10
##    hero_names cryokinesis electrokinesis telekinesis hyperkinesis hypnokinesis
##    <chr>      <lgl>       <lgl>          <lgl>       <lgl>        <lgl>       
##  1 Alan Scott FALSE       FALSE          FALSE       FALSE        TRUE        
##  2 Amazo      TRUE        FALSE          FALSE       FALSE        FALSE       
##  3 Apocalypse FALSE       FALSE          TRUE        FALSE        FALSE       
##  4 Aqualad    TRUE        FALSE          FALSE       FALSE        FALSE       
##  5 Beyonder   FALSE       FALSE          TRUE        FALSE        FALSE       
##  6 Bizarro    TRUE        FALSE          FALSE       FALSE        TRUE        
##  7 Black Abb… FALSE       FALSE          TRUE        FALSE        FALSE       
##  8 Black Adam FALSE       FALSE          TRUE        FALSE        FALSE       
##  9 Black Lig… FALSE       TRUE           FALSE       FALSE        FALSE       
## 10 Black Mam… FALSE       FALSE          FALSE       FALSE        TRUE        
## # … with 102 more rows, and 4 more variables: thirstokinesis <lgl>,
## #   biokinesis <lgl>, terrakinesis <lgl>, vitakinesis <lgl>
```
…
